-- Merging decision tree log ---
manifest
ADDED from /home/arnaud/Thèmes/EnhancementTheme/EnhancementTheme/theme/src/main/AndroidManifest.xml:41:1-52:12
	package
		ADDED from /home/arnaud/Thèmes/EnhancementTheme/EnhancementTheme/theme/src/main/AndroidManifest.xml:42:5-40
		INJECTED from /home/arnaud/Thèmes/EnhancementTheme/EnhancementTheme/theme/src/main/AndroidManifest.xml
		INJECTED from /home/arnaud/Thèmes/EnhancementTheme/EnhancementTheme/theme/src/main/AndroidManifest.xml
	android:versionName
		INJECTED from /home/arnaud/Thèmes/EnhancementTheme/EnhancementTheme/theme/src/main/AndroidManifest.xml
		INJECTED from /home/arnaud/Thèmes/EnhancementTheme/EnhancementTheme/theme/src/main/AndroidManifest.xml
	xmlns:android
		ADDED from /home/arnaud/Thèmes/EnhancementTheme/EnhancementTheme/theme/src/main/AndroidManifest.xml:41:11-69
	android:versionCode
		INJECTED from /home/arnaud/Thèmes/EnhancementTheme/EnhancementTheme/theme/src/main/AndroidManifest.xml
		INJECTED from /home/arnaud/Thèmes/EnhancementTheme/EnhancementTheme/theme/src/main/AndroidManifest.xml
uses-sdk
ADDED from /home/arnaud/Thèmes/EnhancementTheme/EnhancementTheme/theme/src/main/AndroidManifest.xml:44:5-74
	android:targetSdkVersion
		ADDED from /home/arnaud/Thèmes/EnhancementTheme/EnhancementTheme/theme/src/main/AndroidManifest.xml:44:42-71
		INJECTED from /home/arnaud/Thèmes/EnhancementTheme/EnhancementTheme/theme/src/main/AndroidManifest.xml
		INJECTED from /home/arnaud/Thèmes/EnhancementTheme/EnhancementTheme/theme/src/main/AndroidManifest.xml
	android:minSdkVersion
		ADDED from /home/arnaud/Thèmes/EnhancementTheme/EnhancementTheme/theme/src/main/AndroidManifest.xml:44:15-41
		INJECTED from /home/arnaud/Thèmes/EnhancementTheme/EnhancementTheme/theme/src/main/AndroidManifest.xml
		INJECTED from /home/arnaud/Thèmes/EnhancementTheme/EnhancementTheme/theme/src/main/AndroidManifest.xml
application
ADDED from /home/arnaud/Thèmes/EnhancementTheme/EnhancementTheme/theme/src/main/AndroidManifest.xml:46:5-47:19
	android:hasCode
		ADDED from /home/arnaud/Thèmes/EnhancementTheme/EnhancementTheme/theme/src/main/AndroidManifest.xml:46:18-41
	android:label
		ADDED from /home/arnaud/Thèmes/EnhancementTheme/EnhancementTheme/theme/src/main/AndroidManifest.xml:46:79-106
	android:icon
		ADDED from /home/arnaud/Thèmes/EnhancementTheme/EnhancementTheme/theme/src/main/AndroidManifest.xml:46:42-78
meta-data#org.cyanogenmod.theme.name
ADDED from /home/arnaud/Thèmes/EnhancementTheme/EnhancementTheme/theme/src/main/AndroidManifest.xml:49:5-87
	android:value
		ADDED from /home/arnaud/Thèmes/EnhancementTheme/EnhancementTheme/theme/src/main/AndroidManifest.xml:49:58-85
	android:name
		ADDED from /home/arnaud/Thèmes/EnhancementTheme/EnhancementTheme/theme/src/main/AndroidManifest.xml:49:16-57
meta-data#org.cyanogenmod.theme.author
ADDED from /home/arnaud/Thèmes/EnhancementTheme/EnhancementTheme/theme/src/main/AndroidManifest.xml:50:5-88
	android:value
		ADDED from /home/arnaud/Thèmes/EnhancementTheme/EnhancementTheme/theme/src/main/AndroidManifest.xml:50:60-85
	android:name
		ADDED from /home/arnaud/Thèmes/EnhancementTheme/EnhancementTheme/theme/src/main/AndroidManifest.xml:50:16-59
